%YAML 1.1
%TAG !u! tag:unity3d.com,2011:
--- !u!114 &11400000
MonoBehaviour:
  m_ObjectHideFlags: 0
  m_CorrespondingSourceObject: {fileID: 0}
  m_PrefabInternal: {fileID: 0}
  m_GameObject: {fileID: 0}
  m_Enabled: 1
  m_EditorHideFlags: 0
  m_Script: {fileID: 11500000, guid: c9a400576bbf7264eb59311cc125865e, type: 3}
  m_Name: SphereClickColorData
  m_EditorClassIdentifier: 
  ObjectType: Sphere
  MinClicksCount: 2
  MaxClicksCount: 7
  Color: {r: 0.2733179, g: 0.32195628, b: 0.6981132, a: 0}
